{
  "implemented": true,
  "name": "Bellossom",
  "nationalPokedexNumber": 182,
  "primaryType": "grass",
  "abilities": [
    "chlorophyll",
    "h:healer"
  ],
  "baseStats": {
    "hp": 75,
    "attack": 80,
    "defence": 95,
    "special_attack": 90,
    "special_defence": 100,
    "speed": 50
  },
  "catchRate": 45,
  "maleRatio": 0.5,
  "shoulderMountable": true,
  "features": [
    "valencian"
  ],
  "baseExperienceYield": 245,
  "experienceGroup": "medium_slow",
  "eggCycles": 20,
  "eggGroups": [
    "grass"
  ],
  "moves": [
    "1:absorb",
    "1:acid",
    "1:gigadrain",
    "1:grassyterrain",
    "1:growth",
    "1:megadrain",
    "1:moonblast",
    "1:moonlight",
    "1:petaldance",
    "1:poisonpowder",
    "1:quiverdance",
    "1:sleeppowder",
    "1:stunspore",
    "1:sweetscent",
    "1:toxic",
    "tm:attract",
    "tm:batonpass",
    "tm:bulletseed",
    "tm:captivate",
    "tm:charm",
    "tm:confide",
    "tm:dazzlinggleam",
    "tm:doubleteam",
    "tm:drainpunch",
    "tm:endure",
    "tm:energyball",
    "tm:facade",
    "tm:fling",
    "tm:frustration",
    "tm:gigadrain",
    "tm:gigaimpact",
    "tm:grassknot",
    "tm:grassyterrain",
    "tm:helpinghand",
    "tm:hiddenpower",
    "tm:hyperbeam",
    "tm:infestation",
    "tm:leafblade",
    "tm:leafstorm",
    "tm:magicalleaf",
    "tm:naturalgift",
    "tm:naturepower",
    "tm:playrough",
    "tm:protect",
    "tm:rest",
    "tm:return",
    "tm:round",
    "tm:safeguard",
    "tm:secretpower",
    "tm:seedbomb",
    "tm:sleeptalk",
    "tm:sludgebomb",
    "tm:snore",
    "tm:solarbeam",
    "tm:substitute",
    "tm:sunnyday",
    "tm:swagger",
    "tm:swordsdance",
    "tm:uproar",
    "tm:venoshock",
    "tutor:afteryou",
    "tutor:curse",
    "tutor:cut",
    "tutor:doubleedge",
    "tutor:doubleteam",
    "tutor:flash",
    "tutor:frustration",
    "tutor:gastroacid",
    "tutor:grassyglide",
    "tutor:hiddenpower",
    "tutor:laserfocus",
    "tutor:mimic",
    "tutor:return",
    "tutor:swagger",
    "tutor:synthesis",
    "tutor:worryseed"
  ],
  "labels": [
    "gen2"
  ],
  "pokedex": [
    "cobblemon.species.bellossom.desc"
  ],
  "preEvolution": "gloom",
  "evolutions": [],
  "baseScale": 0.5,
  "hitbox": {
    "width": 0.8,
    "height": 1,
    "fixed": false
  },
  "baseFriendship": 50,
  "evYield": {
    "hp": 0,
    "attack": 0,
    "defence": 0,
    "special_attack": 0,
    "special_defence": 3,
    "speed": 0
  },
  "height": 4,
  "weight": 58,
  "aspects": [],
  "cannotDynamax": false
}