{
  "name": "Ho-Oh",
  "nationalPokedexNumber": 250,
  "primaryType": "fire",
  "secondaryType": "flying",
  "abilities": [
    "pressure",
    "h:regenerator"
  ],
  "baseStats": {
    "hp": 106,
    "attack": 130,
    "defence": 90,
    "special_attack": 110,
    "special_defence": 154,
    "speed": 90
  },
  "catchRate": 3,
  "maleRatio": -1,
  "shoulderMountable": false,
  "baseExperienceYield": 340,
  "experienceGroup": "slow",
  "eggCycles": 120,
  "eggGroups": [
    "undiscovered"
  ],
  "moves": [
    "1:ancientpower",
    "1:gust",
    "1:weatherball",
    "1:whirlwind",
    "9:lifedew",
    "18:safeguard",
    "27:calmmind",
    "36:extrasensory",
    "45:recover",
    "50:punishment",
    "54:sacredfire",
    "63:sunnyday",
    "72:fireblast",
    "81:futuresight",
    "85:naturalgift",
    "90:skyattack",
    "99:burnup",
    "tm:aerialace",
    "tm:airslash",
    "tm:bravebird",
    "tm:bulldoze",
    "tm:calmmind",
    "tm:chargebeam",
    "tm:confide",
    "tm:doubleteam",
    "tm:dreameater",
    "tm:earthpower",
    "tm:earthquake",
    "tm:echoedvoice",
    "tm:endure",
    "tm:facade",
    "tm:fireblast",
    "tm:firespin",
    "tm:flamecharge",
    "tm:flamethrower",
    "tm:flareblitz",
    "tm:fly",
    "tm:frustration",
    "tm:futuresight",
    "tm:gigadrain",
    "tm:gigaimpact",
    "tm:heatwave",
    "tm:helpinghand",
    "tm:hiddenpower",
    "tm:hyperbeam",
    "tm:hypervoice",
    "tm:imprison",
    "tm:incinerate",
    "tm:ironhead",
    "tm:lightscreen",
    "tm:mysticalfire",
    "tm:overheat",
    "tm:pluck",
    "tm:protect",
    "tm:psychic",
    "tm:psychup",
    "tm:raindance",
    "tm:reflect",
    "tm:rest",
    "tm:return",
    "tm:roar",
    "tm:roost",
    "tm:round",
    "tm:safeguard",
    "tm:sandstorm",
    "tm:secretpower",
    "tm:shadowball",
    "tm:skydrop",
    "tm:sleeptalk",
    "tm:snore",
    "tm:solarbeam",
    "tm:steelwing",
    "tm:substitute",
    "tm:sunnyday",
    "tm:swagger",
    "tm:swift",
    "tm:thunder",
    "tm:thunderbolt",
    "tm:thunderwave",
    "tm:toxic",
    "tm:weatherball",
    "tm:willowisp",
    "tm:zenheadbutt",
    "tutor:aircutter",
    "tutor:ancientpower",
    "tutor:celebrate",
    "tutor:curse",
    "tutor:defog",
    "tutor:detect",
    "tutor:doubleedge",
    "tutor:doubleteam",
    "tutor:dragonbreath",
    "tutor:dreameater",
    "tutor:dualwingbeat",
    "tutor:extrasensory",
    "tutor:flareblitz",
    "tutor:flash",
    "tutor:frustration",
    "tutor:hiddenpower",
    "tutor:laserfocus",
    "tutor:mimic",
    "tutor:mudslap",
    "tutor:nightmare",
    "tutor:ominouswind",
    "tutor:psychup",
    "tutor:return",
    "tutor:roar",
    "tutor:rocksmash",
    "tutor:scorchingsands",
    "tutor:shockwave",
    "tutor:signalbeam",
    "tutor:strength",
    "tutor:sunnyday",
    "tutor:swagger",
    "tutor:tailwind",
    "tutor:tailwind",
    "tutor:toxic",
    "tutor:twister",
    "tutor:zapcannon"
  ],
  "labels": [
    "gen2",
    "legendary"
  ],
  "pokedex": [
    "cobblemon.species.hooh.desc"
  ],
  "evolutions": [],
  "baseScale": 1,
  "hitbox": {
    "width": 1,
    "height": 1,
    "fixed": false
  },
  "baseFriendship": 0,
  "evYield": {
    "hp": 0,
    "attack": 0,
    "defence": 0,
    "special_attack": 0,
    "special_defence": 3,
    "speed": 0
  },
  "height": 38,
  "weight": 1990,
  "aspects": [],
  "cannotDynamax": false
}