{
  "implemented": true,
  "name": "Scizor",
  "nationalPokedexNumber": 212,
  "primaryType": "bug",
  "secondaryType": "steel",
  "abilities": [
    "swarm",
    "technician",
    "h:lightmetal"
  ],
  "baseStats": {
    "hp": 70,
    "attack": 130,
    "defence": 100,
    "special_attack": 55,
    "special_defence": 80,
    "speed": 65
  },
  "catchRate": 25,
  "maleRatio": 0.5,
  "shoulderMountable": false,
  "forms": [
    {
      "name": "Mega",
      "primaryType": "bug",
      "secondaryType": "steel",
      "abilities": [
        "technician"
      ],
      "baseStats": {
        "hp": 70,
        "attack": 150,
        "defence": 140,
        "special_attack": 65,
        "special_defence": 100,
        "speed": 75
      },
      "catchRate": 25,
      "maleRatio": 0.5,
      "baseExperienceYield": 210,
      "baseFriendship": 50,
      "evYield": {
        "hp": 0,
        "attack": 2,
        "defence": 0,
        "special_attack": 0,
        "special_defence": 0,
        "speed": 0
      },
      "experienceGroup": "medium_fast",
      "eggCycles": 25,
      "eggGroups": [
        "bug"
      ],
      "moves": [],
      "labels": [
        "gen6",
        "mega"
      ],
      "aspects": [
        "mega"
      ],
      "height": 20,
      "weight": 1250,
      "evolutions": [],
      "cannotDynamax": false,
      "battleOnly": true
    }
  ],
  "baseExperienceYield": 175,
  "experienceGroup": "medium_fast",
  "eggCycles": 25,
  "eggGroups": [
    "bug"
  ],
  "behaviour": {
    "moving": {
      "fly": {
        "canFly": true
      }
    }
  },
  "drops": {
    "amount": "1",
    "entries": [
      {
        "item": "cobblemon:metal_coat",
        "percentage": 10
      }
    ]
  },
  "moves": [
    "1:agility",
    "1:airslash",
    "1:falseswipe",
    "1:feint",
    "1:furycutter",
    "1:leer",
    "1:quickattack",
    "1:wingattack",
    "9:pursuit",
    "12:metalclaw",
    "16:doubleteam",
    "20:doublehit",
    "24:slash",
    "28:focusenergy",
    "32:irondefense",
    "33:razorwind",
    "36:ironhead",
    "40:xscissor",
    "44:laserfocus",
    "44:swordsdance",
    "45:nightslash",
    "tm:acrobatics",
    "tm:aerialace",
    "tm:agility",
    "tm:aircutter",
    "tm:airslash",
    "tm:assurance",
    "tm:attract",
    "tm:batonpass",
    "tm:brickbreak",
    "tm:brutalswing",
    "tm:bugbuzz",
    "tm:captivate",
    "tm:closecombat",
    "tm:confide",
    "tm:crosspoison",
    "tm:endure",
    "tm:facade",
    "tm:falseswipe",
    "tm:flashcannon",
    "tm:fling",
    "tm:frustration",
    "tm:gigaimpact",
    "tm:helpinghand",
    "tm:hiddenpower",
    "tm:hyperbeam",
    "tm:irondefense",
    "tm:ironhead",
    "tm:lightscreen",
    "tm:metalclaw",
    "tm:naturalgift",
    "tm:pounce",
    "tm:protect",
    "tm:psychocut",
    "tm:raindance",
    "tm:rest",
    "tm:return",
    "tm:reversal",
    "tm:roost",
    "tm:round",
    "tm:safeguard",
    "tm:sandstorm",
    "tm:sandtomb",
    "tm:scaryface",
    "tm:secretpower",
    "tm:silverwind",
    "tm:sleeptalk",
    "tm:snore",
    "tm:steelbeam",
    "tm:steelwing",
    "tm:strugglebug",
    "tm:substitute",
    "tm:sunnyday",
    "tm:superpower",
    "tm:swagger",
    "tm:swift",
    "tm:swordsdance",
    "tm:tailwind",
    "tm:takedown",
    "tm:terablast",
    "tm:thief",
    "tm:toxic",
    "tm:trailblaze",
    "tm:uturn",
    "tm:venoshock",
    "tm:xscissor",
    "tutor:bugbite",
    "tutor:counter",
    "tutor:curse",
    "tutor:cut",
    "tutor:defog",
    "tutor:detect",
    "tutor:doubleedge",
    "tutor:dualwingbeat",
    "tutor:frustration",
    "tutor:headbutt",
    "tutor:hiddenpower",
    "tutor:knockoff",
    "tutor:mimic",
    "tutor:ominouswind",
    "tutor:pursuit",
    "tutor:return",
    "tutor:rocksmash",
    "tutor:strength",
    "tutor:swagger",
    "tutor:toxic"
  ],
  "labels": [
    "gen2"
  ],
  "pokedex": [
    "cobblemon.species.scizor.desc"
  ],
  "preEvolution": "scyther",
  "evolutions": [],
  "baseScale": 0.9,
  "hitbox": {
    "width": 1,
    "height": 2.2,
    "fixed": false
  },
  "baseFriendship": 50,
  "evYield": {
    "hp": 0,
    "attack": 2,
    "defence": 0,
    "special_attack": 0,
    "special_defence": 0,
    "speed": 0
  },
  "height": 18,
  "weight": 1180,
  "aspects": [],
  "cannotDynamax": false
}