{
  "name": "Skarmory",
  "nationalPokedexNumber": 227,
  "primaryType": "steel",
  "secondaryType": "flying",
  "abilities": [
    "keeneye",
    "sturdy",
    "h:weakarmor"
  ],
  "baseStats": {
    "hp": 65,
    "attack": 80,
    "defence": 140,
    "special_attack": 40,
    "special_defence": 70,
    "speed": 70
  },
  "catchRate": 25,
  "maleRatio": 0.5,
  "shoulderMountable": false,
  "baseExperienceYield": 163,
  "experienceGroup": "slow",
  "eggCycles": 25,
  "eggGroups": [
    "flying"
  ],
  "moves": [
    "1:leer",
    "1:peck",
    "4:sandattack",
    "8:furyattack",
    "12:metalclaw",
    "16:agility",
    "20:wingattack",
    "24:slash",
    "28:steelwing",
    "32:autotomize",
    "36:drillpeck",
    "40:metalsound",
    "44:spikes",
    "48:irondefense",
    "52:bravebird",
    "egg:aircutter",
    "egg:curse",
    "egg:feint",
    "egg:nightslash",
    "egg:pursuit",
    "egg:roost",
    "egg:skyattack",
    "egg:whirlwind",
    "tm:aerialace",
    "tm:agility",
    "tm:airslash",
    "tm:assurance",
    "tm:attract",
    "tm:bodypress",
    "tm:bravebird",
    "tm:captivate",
    "tm:confide",
    "tm:darkpulse",
    "tm:doubleteam",
    "tm:endure",
    "tm:facade",
    "tm:flash",
    "tm:flashcannon",
    "tm:fly",
    "tm:frustration",
    "tm:guardswap",
    "tm:hiddenpower",
    "tm:icywind",
    "tm:irondefense",
    "tm:ironhead",
    "tm:naturalgift",
    "tm:payback",
    "tm:pluck",
    "tm:protect",
    "tm:rest",
    "tm:return",
    "tm:roar",
    "tm:rockslide",
    "tm:rocksmash",
    "tm:rocktomb",
    "tm:round",
    "tm:sandstorm",
    "tm:sandtomb",
    "tm:secretpower",
    "tm:skydrop",
    "tm:sleeptalk",
    "tm:snore",
    "tm:spikes",
    "tm:stealthrock",
    "tm:steelwing",
    "tm:substitute",
    "tm:sunnyday",
    "tm:swagger",
    "tm:swift",
    "tm:swordsdance",
    "tm:taunt",
    "tm:thief",
    "tm:torment",
    "tm:toxic",
    "tm:xscissor",
    "tutor:counter",
    "tutor:cut",
    "tutor:defog",
    "tutor:detect",
    "tutor:doubleedge",
    "tutor:doubleteam",
    "tutor:dualwingbeat",
    "tutor:frustration",
    "tutor:furycutter",
    "tutor:hiddenpower",
    "tutor:mimic",
    "tutor:mudslap",
    "tutor:ominouswind",
    "tutor:pursuit",
    "tutor:return",
    "tutor:steelbeam",
    "tutor:swagger",
    "tutor:tailwind",
    "tutor:toxic",
    "tutor:twister"
  ],
  "labels": [
    "gen2"
  ],
  "pokedex": [
    "cobblemon.species.skarmory.desc"
  ],
  "evolutions": [],
  "baseScale": 1,
  "hitbox": {
    "width": 1,
    "height": 1,
    "fixed": false
  },
  "baseFriendship": 50,
  "evYield": {
    "hp": 0,
    "attack": 0,
    "defence": 2,
    "special_attack": 0,
    "special_defence": 0,
    "speed": 0
  },
  "height": 17,
  "weight": 505,
  "aspects": [],
  "cannotDynamax": false
}