{
  "name": "Suicune",
  "nationalPokedexNumber": 245,
  "primaryType": "water",
  "abilities": [
    "pressure",
    "h:innerfocus"
  ],
  "baseStats": {
    "hp": 100,
    "attack": 75,
    "defence": 115,
    "special_attack": 90,
    "special_defence": 115,
    "speed": 85
  },
  "catchRate": 3,
  "maleRatio": -1,
  "shoulderMountable": false,
  "baseExperienceYield": 290,
  "experienceGroup": "slow",
  "eggCycles": 80,
  "eggGroups": [
    "undiscovered"
  ],
  "moves": [
    "1:bubblebeam",
    "1:extremespeed",
    "1:gust",
    "1:leer",
    "1:mist",
    "1:sheercold",
    "1:watergun",
    "6:waterpulse",
    "12:bite",
    "18:calmmind",
    "24:roar",
    "29:aurorabeam",
    "30:icefang",
    "36:tailwind",
    "42:crunch",
    "48:extrasensory",
    "54:surf",
    "60:mirrorcoat",
    "66:raindance",
    "72:hydropump",
    "78:blizzard",
    "tm:agility",
    "tm:airslash",
    "tm:avalanche",
    "tm:blizzard",
    "tm:bodyslam",
    "tm:brine",
    "tm:bulldoze",
    "tm:calmmind",
    "tm:confide",
    "tm:crunch",
    "tm:dig",
    "tm:dive",
    "tm:doubleteam",
    "tm:endure",
    "tm:facade",
    "tm:frustration",
    "tm:gigaimpact",
    "tm:hail",
    "tm:helpinghand",
    "tm:hiddenpower",
    "tm:hydropump",
    "tm:hyperbeam",
    "tm:icebeam",
    "tm:icefang",
    "tm:icywind",
    "tm:ironhead",
    "tm:irontail",
    "tm:liquidation",
    "tm:naturalgift",
    "tm:protect",
    "tm:psychup",
    "tm:quash",
    "tm:raindance",
    "tm:reflect",
    "tm:rest",
    "tm:return",
    "tm:rockclimb",
    "tm:round",
    "tm:sandstorm",
    "tm:scald",
    "tm:secretpower",
    "tm:shadowball",
    "tm:sleeptalk",
    "tm:snarl",
    "tm:snore",
    "tm:substitute",
    "tm:sunnyday",
    "tm:surf",
    "tm:swagger",
    "tm:swift",
    "tm:toxic",
    "tm:waterfall",
    "tm:weatherball",
    "tm:whirlpool",
    "tutor:aquaring",
    "tutor:aurorabeam",
    "tutor:aurorabeam",
    "tutor:bubblebeam",
    "tutor:bubblebeam",
    "tutor:calmmind",
    "tutor:curse",
    "tutor:cut",
    "tutor:detect",
    "tutor:doubleedge",
    "tutor:doubleteam",
    "tutor:extrasensory",
    "tutor:extremespeed",
    "tutor:frustration",
    "tutor:headbutt",
    "tutor:hiddenpower",
    "tutor:laserfocus",
    "tutor:liquidation",
    "tutor:mimic",
    "tutor:mudslap",
    "tutor:ominouswind",
    "tutor:psychup",
    "tutor:return",
    "tutor:rocksmash",
    "tutor:signalbeam",
    "tutor:swagger",
    "tutor:toxic"
  ],
  "labels": [
    "gen2",
    "legendary"
  ],
  "pokedex": [
    "cobblemon.species.suicune.desc"
  ],
  "evolutions": [],
  "baseScale": 1,
  "hitbox": {
    "width": 1,
    "height": 1,
    "fixed": false
  },
  "baseFriendship": 35,
  "evYield": {
    "hp": 0,
    "attack": 0,
    "defence": 1,
    "special_attack": 0,
    "special_defence": 2,
    "speed": 0
  },
  "height": 20,
  "weight": 1870,
  "aspects": [],
  "cannotDynamax": false
}