{
  "name": "Totodile",
  "nationalPokedexNumber": 158,
  "primaryType": "water",
  "abilities": [
    "torrent",
    "h:sheerforce"
  ],
  "baseStats": {
    "hp": 50,
    "attack": 65,
    "defence": 64,
    "special_attack": 44,
    "special_defence": 48,
    "speed": 43
  },
  "catchRate": 45,
  "maleRatio": 0.875,
  "shoulderMountable": false,
  "baseExperienceYield": 63,
  "experienceGroup": "medium_slow",
  "eggCycles": 20,
  "eggGroups": [
    "monster",
    "water_1"
  ],
  "moves": [
    "1:leer",
    "1:scratch",
    "6:watergun",
    "8:rage",
    "13:bite",
    "15:scaryface",
    "20:icefang",
    "22:flail",
    "27:crunch",
    "29:chipaway",
    "34:slash",
    "36:screech",
    "41:thrash",
    "43:aquatail",
    "48:superpower",
    "50:hydropump",
    "egg:ancientpower",
    "egg:aquajet",
    "egg:block",
    "egg:crunch",
    "egg:dragondance",
    "egg:faketears",
    "egg:flatter",
    "egg:hydropump",
    "egg:icepunch",
    "egg:metalclaw",
    "egg:mudsport",
    "egg:thrash",
    "egg:waterpulse",
    "egg:watersport",
    "tm:aerialace",
    "tm:attract",
    "tm:blizzard",
    "tm:brickbreak",
    "tm:captivate",
    "tm:confide",
    "tm:dive",
    "tm:doubleteam",
    "tm:dragonclaw",
    "tm:facade",
    "tm:fling",
    "tm:frustration",
    "tm:hail",
    "tm:hiddenpower",
    "tm:honeclaws",
    "tm:icebeam",
    "tm:naturalgift",
    "tm:poweruppunch",
    "tm:protect",
    "tm:raindance",
    "tm:rest",
    "tm:return",
    "tm:rockslide",
    "tm:rocktomb",
    "tm:round",
    "tm:scald",
    "tm:secretpower",
    "tm:shadowclaw",
    "tm:sleeptalk",
    "tm:substitute",
    "tm:surf",
    "tm:swagger",
    "tm:swordsdance",
    "tm:toxic",
    "tm:waterfall",
    "tm:workup",
    "tutor:ancientpower",
    "tutor:aquatail",
    "tutor:attract",
    "tutor:bite",
    "tutor:blizzard",
    "tutor:block",
    "tutor:bodyslam",
    "tutor:counter",
    "tutor:crunch",
    "tutor:curse",
    "tutor:cut",
    "tutor:detect",
    "tutor:dig",
    "tutor:doubleedge",
    "tutor:doubleteam",
    "tutor:dynamicpunch",
    "tutor:endure",
    "tutor:focuspunch",
    "tutor:frustration",
    "tutor:headbutt",
    "tutor:hiddenpower",
    "tutor:hydrocannon",
    "tutor:hydropump",
    "tutor:icepunch",
    "tutor:icepunch",
    "tutor:icywind",
    "tutor:icywind",
    "tutor:irontail",
    "tutor:irontail",
    "tutor:leer",
    "tutor:lowkick",
    "tutor:megakick",
    "tutor:megapunch",
    "tutor:mimic",
    "tutor:mudslap",
    "tutor:protect",
    "tutor:rage",
    "tutor:raindance",
    "tutor:razorwind",
    "tutor:rest",
    "tutor:return",
    "tutor:rockslide",
    "tutor:scaryface",
    "tutor:scratch",
    "tutor:screech",
    "tutor:seismictoss",
    "tutor:slash",
    "tutor:sleeptalk",
    "tutor:snore",
    "tutor:snore",
    "tutor:spite",
    "tutor:superpower",
    "tutor:surf",
    "tutor:swagger",
    "tutor:thrash",
    "tutor:toxic",
    "tutor:uproar",
    "tutor:watergun",
    "tutor:waterpledge",
    "tutor:waterpulse",
    "tutor:whirlpool"
  ],
  "labels": [
    "gen2"
  ],
  "pokedex": [
    "cobblemon.species.totodile.desc"
  ],
  "evolutions": [
    {
      "id": "totodile_croconaw",
      "variant": "level_up",
      "result": "croconaw",
      "consumeHeldItem": false,
      "learnableMoves": [],
      "requirements": [
        {
          "variant": "level",
          "minLevel": 18
        }
      ]
    }
  ],
  "baseScale": 1,
  "hitbox": {
    "width": 1,
    "height": 1,
    "fixed": false
  },
  "baseFriendship": 70,
  "evYield": {
    "hp": 0,
    "attack": 1,
    "defence": 0,
    "special_attack": 0,
    "special_defence": 0,
    "speed": 0
  },
  "height": 6,
  "weight": 95,
  "aspects": [],
  "cannotDynamax": false
}