{
  "name": "Aromatisse",
  "nationalPokedexNumber": 683,
  "primaryType": "fairy",
  "abilities": [
    "healer",
    "h:aromaveil"
  ],
  "baseStats": {
    "hp": 101,
    "attack": 72,
    "defence": 72,
    "special_attack": 99,
    "special_defence": 89,
    "speed": 29
  },
  "catchRate": 140,
  "maleRatio": 0.5,
  "shoulderMountable": false,
  "baseExperienceYield": 162,
  "experienceGroup": "medium_fast",
  "eggCycles": 20,
  "eggGroups": [
    "fairy"
  ],
  "moves": [
    "1:aromaticmist",
    "1:echoedvoice",
    "1:fairywind",
    "1:healpulse",
    "1:odorsleuth",
    "1:sweetkiss",
    "1:sweetscent",
    "9:disarmingvoice",
    "12:aromatherapy",
    "15:drainingkiss",
    "18:attract",
    "21:flail",
    "24:mistyterrain",
    "27:psychic",
    "30:charm",
    "33:calmmind",
    "36:moonblast",
    "39:skillswap",
    "42:psychup",
    "tm:allyswitch",
    "tm:attract",
    "tm:calmmind",
    "tm:chargebeam",
    "tm:charm",
    "tm:confide",
    "tm:dazzlinggleam",
    "tm:doubleteam",
    "tm:drainingkiss",
    "tm:drainpunch",
    "tm:dreameater",
    "tm:encore",
    "tm:endure",
    "tm:energyball",
    "tm:facade",
    "tm:faketears",
    "tm:flash",
    "tm:flashcannon",
    "tm:frustration",
    "tm:gigaimpact",
    "tm:gyroball",
    "tm:helpinghand",
    "tm:hiddenpower",
    "tm:hyperbeam",
    "tm:lightscreen",
    "tm:metronome",
    "tm:mistyterrain",
    "tm:nastyplot",
    "tm:protect",
    "tm:psychic",
    "tm:psyshock",
    "tm:raindance",
    "tm:reflect",
    "tm:rest",
    "tm:return",
    "tm:round",
    "tm:secretpower",
    "tm:skillswap",
    "tm:sleeptalk",
    "tm:snore",
    "tm:substitute",
    "tm:sunnyday",
    "tm:swagger",
    "tm:thunder",
    "tm:thunderbolt",
    "tm:torment",
    "tm:toxic",
    "tm:trickroom",
    "tutor:afteryou",
    "tutor:covet",
    "tutor:disable",
    "tutor:endeavor",
    "tutor:healbell",
    "tutor:magiccoat",
    "tutor:mistyexplosion",
    "tutor:telekinesis"
  ],
  "labels": [
    "gen6"
  ],
  "pokedex": [
    "cobblemon.species.aromatisse.desc"
  ],
  "preEvolution": "spritzee",
  "evolutions": [],
  "baseScale": 1,
  "hitbox": {
    "width": 1,
    "height": 1,
    "fixed": false
  },
  "baseFriendship": 50,
  "evYield": {
    "hp": 2,
    "attack": 0,
    "defence": 0,
    "special_attack": 0,
    "special_defence": 0,
    "speed": 0
  },
  "height": 8,
  "weight": 155,
  "aspects": [],
  "cannotDynamax": false
}