{
	"format_version": "1.8.0",
	"animations": {
		"animation.porygonz.ground_idle": {
			"loop": true,
			"bones": {
				"torso": {
					"rotation": [12.5, 0, 0]
				},
				"arm_left": {
					"rotation": [0, 20, -10]
				},
				"head": {
					"rotation": [-12.5, 0, 0]
				},
				"tail": {
					"rotation": [-20, 0, 0]
				},
				"arm_right": {
					"rotation": [0, -20, 10]
				}
			}
		},
		"animation.porygonz.blink": {
			"animation_length": 0.16667,
			"bones": {
				"pupil_left": {
					"position": {
						"0.0": [-0.1, 0, 0],
						"0.125": [-0.1, 0, 0],
						"0.1667": [0, 0, 0]
					}
				},
				"pupil_closed_left": {
					"position": {
						"0.0": [0.1, 0, 0],
						"0.125": [0.1, 0, 0],
						"0.1667": [0, 0, 0]
					}
				},
				"pupil_right": {
					"position": {
						"0.0": [0.1, 0, 0],
						"0.125": [0.1, 0, 0],
						"0.1667": [0, 0, 0]
					}
				},
				"pupil_closed_right": {
					"position": {
						"0.0": [-0.1, 0, 0],
						"0.125": [-0.1, 0, 0],
						"0.1667": [0, 0, 0]
					}
				}
			}
		}
	},
	"geckolib_format_version": 2
}