{
  "name": "Brambleghast",
  "nationalPokedexNumber": 947,
  "primaryType": "grass",
  "secondaryType": "ghost",
  "abilities": [
    "windrider",
    "h:infiltrator"
  ],
  "baseStats": {
    "hp": 55,
    "attack": 115,
    "defence": 70,
    "special_attack": 80,
    "special_defence": 70,
    "speed": 90
  },
  "catchRate": 45,
  "maleRatio": 0.5,
  "baseExperienceYield": 0,
  "baseFriendship": 50,
  "evYield": {
    "hp": 0,
    "attack": 2,
    "defence": 0,
    "special_attack": 0,
    "special_defence": 0,
    "speed": 0
  },
  "experienceGroup": "medium_fast",
  "eggCycles": 20,
  "eggGroups": [
    "grass"
  ],
  "moves": [
    "1:astonish",
    "1:defensecurl",
    "1:rollout",
    "5:absorb",
    "9:rapidspin",
    "13:bulletseed",
    "17:infestation",
    "21:hex",
    "25:megadrain",
    "29:disable",
    "35:phantomforce",
    "40:gigadrain",
    "45:curse",
    "50:painsplit",
    "55:powerwhip",
    "tm:bulletseed",
    "tm:confuseray",
    "tm:endure",
    "tm:energyball",
    "tm:facade",
    "tm:gigadrain",
    "tm:gigaimpact",
    "tm:grassknot",
    "tm:grassyterrain",
    "tm:hex",
    "tm:hyperbeam",
    "tm:leafstorm",
    "tm:nightshade",
    "tm:phantomforce",
    "tm:pounce",
    "tm:protect",
    "tm:rest",
    "tm:scaryface",
    "tm:seedbomb",
    "tm:shadowball",
    "tm:sleeptalk",
    "tm:solarbeam",
    "tm:spikes",
    "tm:substitute",
    "tm:terablast",
    "tm:thief",
    "tm:trailblaze"
  ],
  "labels": [
    "gen9"
  ],
  "aspects": [],
  "height": 12,
  "weight": 60,
  "preEvolution": "bramblin",
  "evolutions": [],
  "cannotDynamax": false,
  "pokedex": [
    "cobblemon.species.brambleghast.desc"
  ]
}