{
  "name": "Revavroom",
  "nationalPokedexNumber": 966,
  "primaryType": "steel",
  "secondaryType": "poison",
  "abilities": [
    "overcoat",
    "h:filter"
  ],
  "baseStats": {
    "hp": 80,
    "attack": 119,
    "defence": 90,
    "special_attack": 54,
    "special_defence": 67,
    "speed": 90
  },
  "catchRate": 75,
  "maleRatio": 0.5,
  "baseExperienceYield": 0,
  "baseFriendship": 50,
  "evYield": {
    "hp": 0,
    "attack": 2,
    "defence": 0,
    "special_attack": 0,
    "special_defence": 0,
    "speed": 0
  },
  "experienceGroup": "medium_fast",
  "eggCycles": 20,
  "eggGroups": [
    "mineral"
  ],
  "moves": [
    "1:lick",
    "1:magnetrise",
    "1:poisongas",
    "4:smog",
    "7:taunt",
    "10:assurance",
    "13:sludge",
    "17:gyroball",
    "21:headbutt",
    "25:screech",
    "28:ironhead",
    "32:swagger",
    "36:poisonjab",
    "46:uproar",
    "52:spinout",
    "58:gunkshot",
    "tm:acidspray",
    "tm:bodyslam",
    "tm:bulldoze",
    "tm:endure",
    "tm:facade",
    "tm:flashcannon",
    "tm:gigaimpact",
    "tm:gunkshot",
    "tm:heavyslam",
    "tm:hyperbeam",
    "tm:irondefense",
    "tm:ironhead",
    "tm:overheat",
    "tm:poisonjab",
    "tm:protect",
    "tm:raindance",
    "tm:rest",
    "tm:sandstorm",
    "tm:scaryface",
    "tm:sleeptalk",
    "tm:sludgebomb",
    "tm:steelbeam",
    "tm:substitute",
    "tm:sunnyday",
    "tm:takedown",
    "tm:taunt",
    "tm:terablast",
    "tm:thief",
    "tm:toxicspikes",
    "tm:venoshock",
    "tm:zenheadbutt"
  ],
  "labels": [
    "gen9"
  ],
  "aspects": [],
  "height": 18,
  "weight": 1200,
  "preEvolution": "varoom",
  "evolutions": [],
  "cannotDynamax": false,
  "pokedex": [
    "cobblemon.species.revavroom.desc"
  ]
}