{
  "name": "Seismitoad",
  "nationalPokedexNumber": 537,
  "primaryType": "water",
  "secondaryType": "ground",
  "abilities": [
    "swiftswim",
    "poisontouch",
    "h:waterabsorb"
  ],
  "baseStats": {
    "hp": 105,
    "attack": 95,
    "defence": 75,
    "special_attack": 85,
    "special_defence": 75,
    "speed": 74
  },
  "catchRate": 45,
  "maleRatio": 0.5,
  "shoulderMountable": false,
  "baseExperienceYield": 255,
  "experienceGroup": "medium_slow",
  "eggCycles": 20,
  "eggGroups": [
    "water_1"
  ],
  "moves": [
    "1:acid",
    "1:bubble",
    "1:echoedvoice",
    "1:gastroacid",
    "1:growl",
    "1:supersonic",
    "12:mudshot",
    "16:round",
    "20:bubblebeam",
    "24:flail",
    "30:uproar",
    "39:aquaring",
    "46:hypervoice",
    "54:muddywater",
    "62:raindance",
    "70:hydropump",
    "tm:attract",
    "tm:bounce",
    "tm:brickbreak",
    "tm:bulldoze",
    "tm:confide",
    "tm:dig",
    "tm:dive",
    "tm:doubleteam",
    "tm:drainpunch",
    "tm:earthpower",
    "tm:earthquake",
    "tm:endure",
    "tm:facade",
    "tm:fling",
    "tm:focusblast",
    "tm:frustration",
    "tm:gigaimpact",
    "tm:grassknot",
    "tm:hail",
    "tm:hiddenpower",
    "tm:hydropump",
    "tm:hyperbeam",
    "tm:hypervoice",
    "tm:icepunch",
    "tm:icywind",
    "tm:infestation",
    "tm:liquidation",
    "tm:lowkick",
    "tm:megakick",
    "tm:megapunch",
    "tm:muddywater",
    "tm:mudshot",
    "tm:payback",
    "tm:poisonjab",
    "tm:poweruppunch",
    "tm:powerwhip",
    "tm:protect",
    "tm:raindance",
    "tm:rest",
    "tm:return",
    "tm:rockslide",
    "tm:rocksmash",
    "tm:rocktomb",
    "tm:round",
    "tm:scald",
    "tm:screech",
    "tm:secretpower",
    "tm:sleeptalk",
    "tm:sludgebomb",
    "tm:sludgewave",
    "tm:snore",
    "tm:stealthrock",
    "tm:stompingtantrum",
    "tm:strength",
    "tm:substitute",
    "tm:surf",
    "tm:swagger",
    "tm:toxic",
    "tm:uproar",
    "tm:venomdrench",
    "tm:venoshock",
    "tm:weatherball",
    "tutor:afteryou",
    "tutor:endeavor",
    "tutor:focuspunch",
    "tutor:knockoff",
    "tutor:waterpulse"
  ],
  "labels": [
    "gen5"
  ],
  "pokedex": [
    "cobblemon.species.seismitoad.desc"
  ],
  "preEvolution": "palpitoad",
  "evolutions": [],
  "baseScale": 1,
  "hitbox": {
    "width": 1,
    "height": 1,
    "fixed": false
  },
  "baseFriendship": 50,
  "evYield": {
    "hp": 3,
    "attack": 0,
    "defence": 0,
    "special_attack": 0,
    "special_defence": 0,
    "speed": 0
  },
  "height": 15,
  "weight": 620,
  "aspects": [],
  "cannotDynamax": false
}