{
  "implemented": true,
  "name": "Snivy",
  "nationalPokedexNumber": 495,
  "primaryType": "grass",
  "abilities": [
    "overgrow",
    "h:contrary"
  ],
  "baseStats": {
    "hp": 45,
    "attack": 45,
    "defence": 55,
    "special_attack": 45,
    "special_defence": 55,
    "speed": 63
  },
  "catchRate": 45,
  "maleRatio": 0.875,
  "shoulderMountable": false,
  "baseExperienceYield": 62,
  "experienceGroup": "medium_slow",
  "eggCycles": 20,
  "eggGroups": [
    "field",
    "grass"
  ],
  "drops": {
    "amount": "1",
    "entries": [
      {
        "item": "cobblemon:miracle_seed",
        "percentage": 5
      }
    ]
  },
  "moves": [
    "1:tackle",
    "4:leer",
    "7:vinewhip",
    "10:wrap",
    "13:growth",
    "16:leaftornado",
    "19:leechseed",
    "22:megadrain",
    "25:slam",
    "28:leafblade",
    "31:coil",
    "34:gigadrain",
    "37:wringout",
    "40:gastroacid",
    "43:leafstorm",
    "egg:captivate",
    "egg:glare",
    "egg:grassyterrain",
    "egg:irontail",
    "egg:magicalleaf",
    "egg:meanlook",
    "egg:mirrorcoat",
    "egg:naturalgift",
    "egg:pursuit",
    "egg:sweetscent",
    "egg:twister",
    "tm:aerialace",
    "tm:attract",
    "tm:calmmind",
    "tm:confide",
    "tm:cut",
    "tm:doubleteam",
    "tm:energyball",
    "tm:facade",
    "tm:flash",
    "tm:frustration",
    "tm:grassknot",
    "tm:hiddenpower",
    "tm:lightscreen",
    "tm:naturepower",
    "tm:protect",
    "tm:reflect",
    "tm:rest",
    "tm:return",
    "tm:round",
    "tm:safeguard",
    "tm:secretpower",
    "tm:sleeptalk",
    "tm:solarbeam",
    "tm:substitute",
    "tm:sunnyday",
    "tm:swagger",
    "tm:swordsdance",
    "tm:taunt",
    "tm:torment",
    "tm:toxic",
    "tm:workup",
    "tutor:aquatail",
    "tutor:aromatherapy",
    "tutor:bind",
    "tutor:defog",
    "tutor:gastroacid",
    "tutor:gigadrain",
    "tutor:grasspledge",
    "tutor:irontail",
    "tutor:knockoff",
    "tutor:seedbomb",
    "tutor:snatch",
    "tutor:snore",
    "tutor:synthesis",
    "tutor:worryseed"
  ],
  "labels": [
    "gen5"
  ],
  "pokedex": [
    "cobblemon.species.snivy.desc"
  ],
  "evolutions": [
    {
      "id": "snivy_servine",
      "variant": "level_up",
      "result": "servine",
      "consumeHeldItem": false,
      "learnableMoves": [],
      "requirements": [
        {
          "variant": "level",
          "minLevel": 17
        }
      ]
    }
  ],
  "baseScale": 0.55,
  "hitbox": {
    "width": 0.8,
    "height": 1.4,
    "fixed": false
  },
  "baseFriendship": 70,
  "evYield": {
    "hp": 0,
    "attack": 0,
    "defence": 0,
    "special_attack": 0,
    "special_defence": 0,
    "speed": 1
  },
  "height": 6,
  "weight": 81,
  "aspects": [],
  "cannotDynamax": false
}