{
  "implemented": true,
  "name": "Mime Jr.",
  "nationalPokedexNumber": 439,
  "primaryType": "psychic",
  "secondaryType": "fairy",
  "abilities": [
    "soundproof",
    "filter",
    "h:technician"
  ],
  "baseStats": {
    "hp": 20,
    "attack": 25,
    "defence": 45,
    "special_attack": 70,
    "special_defence": 90,
    "speed": 60
  },
  "catchRate": 145,
  "maleRatio": 0.5,
  "shoulderMountable": false,
  "baseExperienceYield": 62,
  "experienceGroup": "medium_fast",
  "eggCycles": 25,
  "eggGroups": [
    "undiscovered"
  ],
  "drops": {
    "amount": "1",
    "entries": [
      {
        "item": "cobblemon:light_clay",
        "percentage": 2.5
      }
    ]
  },
  "moves": [
    "1:barrier",
    "1:copycat",
    "1:pound",
    "4:batonpass",
    "8:encore",
    "8:meditate",
    "11:doubleslap",
    "12:confusion",
    "16:roleplay",
    "20:protect",
    "24:recycle",
    "28:psybeam",
    "32:mimic",
    "36:lightscreen",
    "36:reflect",
    "36:safeguard",
    "40:suckerpunch",
    "44:dazzlinggleam",
    "48:psychic",
    "52:teeterdance",
    "egg:confuseray",
    "egg:fakeout",
    "egg:healingwish",
    "egg:hypnosis",
    "egg:powersplit",
    "egg:tickle",
    "egg:wakeupslap",
    "tm:allyswitch",
    "tm:attract",
    "tm:batonpass",
    "tm:brickbreak",
    "tm:calmmind",
    "tm:captivate",
    "tm:chargebeam",
    "tm:charm",
    "tm:confide",
    "tm:dazzlinggleam",
    "tm:doubleteam",
    "tm:drainpunch",
    "tm:dreameater",
    "tm:encore",
    "tm:endure",
    "tm:facade",
    "tm:flash",
    "tm:fling",
    "tm:frustration",
    "tm:futuresight",
    "tm:grassknot",
    "tm:helpinghand",
    "tm:hiddenpower",
    "tm:icywind",
    "tm:infestation",
    "tm:lightscreen",
    "tm:magicroom",
    "tm:mistyterrain",
    "tm:nastyplot",
    "tm:naturalgift",
    "tm:protect",
    "tm:psychic",
    "tm:psychicterrain",
    "tm:psychup",
    "tm:psyshock",
    "tm:raindance",
    "tm:reflect",
    "tm:rest",
    "tm:return",
    "tm:round",
    "tm:safeguard",
    "tm:secretpower",
    "tm:shadowball",
    "tm:skillswap",
    "tm:sleeptalk",
    "tm:snore",
    "tm:solarbeam",
    "tm:storedpower",
    "tm:substitute",
    "tm:sunnyday",
    "tm:swagger",
    "tm:taunt",
    "tm:thief",
    "tm:thunder",
    "tm:thunderbolt",
    "tm:thunderwave",
    "tm:torment",
    "tm:toxic",
    "tm:trick",
    "tm:trickroom",
    "tm:uproar",
    "tm:wonderroom",
    "tutor:covet",
    "tutor:focuspunch",
    "tutor:headbutt",
    "tutor:magiccoat",
    "tutor:mudslap",
    "tutor:shockwave",
    "tutor:signalbeam",
    "tutor:snatch",
    "tutor:telekinesis"
  ],
  "labels": [
    "gen4",
    "baby"
  ],
  "pokedex": [
    "cobblemon.species.mimejr.desc"
  ],
  "evolutions": [
    {
      "id": "mimejr_mrmime",
      "variant": "level_up",
      "result": "mrmime",
      "consumeHeldItem": false,
      "learnableMoves": [],
      "requirements": [
        {
          "variant": "has_move",
          "move": "mimic"
        }
      ]
    },
    {
      "id": "mimejr_mrmime",
      "variant": "level_up",
      "result": "mrmime form=galar",
      "consumeHeldItem": false,
      "learnableMoves": [],
      "requirements": [
        {
          "variant": "has_move",
          "move": "mimic"
        }
      ]
    }
  ],
  "baseScale": 0.6,
  "hitbox": {
    "width": 0.6,
    "height": 1.1,
    "fixed": false
  },
  "baseFriendship": 50,
  "evYield": {
    "hp": 0,
    "attack": 0,
    "defence": 0,
    "special_attack": 0,
    "special_defence": 1,
    "speed": 0
  },
  "height": 6,
  "weight": 130,
  "aspects": [],
  "cannotDynamax": false
}