{
  "name": "Buzzwole",
  "nationalPokedexNumber": 794,
  "primaryType": "bug",
  "secondaryType": "fighting",
  "abilities": [
    "beastboost"
  ],
  "baseStats": {
    "hp": 107,
    "attack": 139,
    "defence": 139,
    "special_attack": 53,
    "special_defence": 53,
    "speed": 79
  },
  "catchRate": 45,
  "maleRatio": -1,
  "shoulderMountable": false,
  "baseExperienceYield": 285,
  "experienceGroup": "slow",
  "eggCycles": 120,
  "eggGroups": [
    "undiscovered"
  ],
  "moves": [
    "1:harden",
    "1:poweruppunch",
    "5:taunt",
    "7:cometpunch",
    "10:fellstinger",
    "15:vitalthrow",
    "20:bulkup",
    "25:endure",
    "30:reversal",
    "35:megapunch",
    "40:lunge",
    "45:focusenergy",
    "50:dynamicpunch",
    "55:counter",
    "60:hammerarm",
    "65:superpower",
    "70:focuspunch",
    "tm:bodyslam",
    "tm:bounce",
    "tm:brickbreak",
    "tm:bulkup",
    "tm:bulldoze",
    "tm:closecombat",
    "tm:confide",
    "tm:darkestlariat",
    "tm:doubleteam",
    "tm:drainpunch",
    "tm:earthquake",
    "tm:endure",
    "tm:facade",
    "tm:falseswipe",
    "tm:fling",
    "tm:focusenergy",
    "tm:frustration",
    "tm:gigaimpact",
    "tm:gyroball",
    "tm:hiddenpower",
    "tm:highhorsepower",
    "tm:icepunch",
    "tm:ironhead",
    "tm:leechlife",
    "tm:lowsweep",
    "tm:megapunch",
    "tm:outrage",
    "tm:payback",
    "tm:poisonjab",
    "tm:protect",
    "tm:rest",
    "tm:return",
    "tm:revenge",
    "tm:reversal",
    "tm:rockslide",
    "tm:rocktomb",
    "tm:roost",
    "tm:round",
    "tm:sleeptalk",
    "tm:smackdown",
    "tm:snore",
    "tm:stompingtantrum",
    "tm:stoneedge",
    "tm:substitute",
    "tm:superpower",
    "tm:swagger",
    "tm:taunt",
    "tm:thunderpunch",
    "tm:toxic",
    "tm:workup",
    "tutor:bugbite",
    "tutor:coaching",
    "tutor:dualchop",
    "tutor:dualwingbeat",
    "tutor:dynamicpunch",
    "tutor:endeavor",
    "tutor:leechlife",
    "tutor:poweruppunch",
    "tutor:taunt"
  ],
  "labels": [
    "gen7",
    "ultra_beast"
  ],
  "pokedex": [
    "cobblemon.species.buzzwole.desc"
  ],
  "evolutions": [],
  "baseScale": 1,
  "hitbox": {
    "width": 1,
    "height": 1,
    "fixed": false
  },
  "baseFriendship": 0,
  "evYield": {
    "hp": 0,
    "attack": 1,
    "defence": 2,
    "special_attack": 0,
    "special_defence": 0,
    "speed": 0
  },
  "height": 24,
  "weight": 3336,
  "aspects": [],
  "cannotDynamax": false
}