{
  "species": "cobblemon:beheeyem",
  "order": 0,
  "variations": [
    {
      "aspects": [],
      "poser": "cobblemon:beheeyem",
      "model": "cobblemon:beheeyem.geo",
      "texture": "cobblemon:textures/pokemon/0606_beheeyem/beheeyem.png",
      "layers": [
        {
          "name": "color",
          "texture": {
            "frames": [
              "cobblemon:textures/pokemon/0606_beheeyem/glow/hand_glow_yellow.png",
              "cobblemon:textures/pokemon/0606_beheeyem/glow/hand_glow_red.png",
              "cobblemon:textures/pokemon/0606_beheeyem/glow/hand_glow_green.png"
            ],
            "fps": 5,
            "loop": true
          },
          "emissive": true
        }
      ]
    },
    {
      "aspects": [
        "shiny"
      ],
      "texture": "cobblemon:textures/pokemon/0606_beheeyem/beheeyem_shiny.png",
      "layers": [
        {
          "name": "color",
          "texture": {
            "frames": [
              "cobblemon:textures/pokemon/0606_beheeyem/glow/hand_shiny_blue.png",
              "cobblemon:textures/pokemon/0606_beheeyem/glow/hand_shiny_purple.png",
              "cobblemon:textures/pokemon/0606_beheeyem/glow/hand_shiny_green.png"
            ],
            "fps": 5,
            "loop": true
          },
          "emissive": true
        }
      ]
    }
  ]
}