{
  "name": "Dracovish",
  "nationalPokedexNumber": 882,
  "primaryType": "water",
  "secondaryType": "dragon",
  "abilities": [
    "waterabsorb",
    "strongjaw",
    "h:sandrush"
  ],
  "baseStats": {
    "hp": 90,
    "attack": 90,
    "defence": 100,
    "special_attack": 70,
    "special_defence": 80,
    "speed": 75
  },
  "catchRate": 45,
  "maleRatio": -1,
  "shoulderMountable": false,
  "baseExperienceYield": 177,
  "experienceGroup": "slow",
  "eggCycles": 35,
  "eggGroups": [
    "undiscovered"
  ],
  "moves": [
    "1:tackle",
    "1:watergun",
    "7:protect",
    "14:brutalswing",
    "21:ancientpower",
    "28:bite",
    "35:dragonbreath",
    "42:stomp",
    "49:superfang",
    "56:crunch",
    "63:fishiousrend",
    "70:dragonpulse",
    "77:dragonrush",
    "tm:bodyslam",
    "tm:brine",
    "tm:brutalswing",
    "tm:bulldoze",
    "tm:crunch",
    "tm:dive",
    "tm:dragonpulse",
    "tm:earthpower",
    "tm:earthquake",
    "tm:endure",
    "tm:facade",
    "tm:gigaimpact",
    "tm:hydropump",
    "tm:hyperbeam",
    "tm:icefang",
    "tm:ironhead",
    "tm:leechlife",
    "tm:liquidation",
    "tm:lowkick",
    "tm:megakick",
    "tm:outrage",
    "tm:protect",
    "tm:psychicfangs",
    "tm:raindance",
    "tm:rest",
    "tm:rockblast",
    "tm:rockslide",
    "tm:rocktomb",
    "tm:round",
    "tm:scald",
    "tm:sleeptalk",
    "tm:snore",
    "tm:stompingtantrum",
    "tm:stoneedge",
    "tm:substitute",
    "tm:surf",
    "tm:waterfall",
    "tm:whirlpool",
    "tm:zenheadbutt",
    "tutor:dracometeor",
    "tutor:dragonrush",
    "tutor:fishiousrend",
    "tutor:icefang",
    "tutor:meteorbeam",
    "tutor:protect",
    "tutor:tackle",
    "tutor:watergun",
    "tutor:watergun"
  ],
  "labels": [
    "gen8"
  ],
  "pokedex": [
    "cobblemon.species.dracovish.desc"
  ],
  "evolutions": [],
  "baseScale": 1,
  "hitbox": {
    "width": 1,
    "height": 1,
    "fixed": false
  },
  "baseFriendship": 50,
  "evYield": {
    "hp": 0,
    "attack": 0,
    "defence": 2,
    "special_attack": 0,
    "special_defence": 0,
    "speed": 0
  },
  "height": 23,
  "weight": 2150,
  "aspects": [],
  "cannotDynamax": false
}