{
  "implemented": true,
  "name": "Dubwool",
  "nationalPokedexNumber": 832,
  "primaryType": "normal",
  "abilities": [
    "fluffy",
    "steadfast",
    "h:bulletproof"
  ],
  "baseStats": {
    "hp": 72,
    "attack": 80,
    "defence": 100,
    "special_attack": 60,
    "special_defence": 90,
    "speed": 88
  },
  "catchRate": 127,
  "maleRatio": 0.5,
  "shoulderMountable": false,
  "baseExperienceYield": 172,
  "experienceGroup": "medium_fast",
  "eggCycles": 15,
  "features": [
    "sheared"
  ],
  "behaviour": {
    "resting": {
      "canSleep": true,
      "willSleepOnBed": false,
      "depth": "normal",
      "light": "0-4"
    }
  },
  "eggGroups": [
    "field"
  ],
  "drops": {
    "amount": "2",
    "entries": [
      {
        "item": "minecraft:mutton",
		"quantityRange": "1-3",
        "percentage": 75
      },
      {
        "item": "minecraft:white_wool",
		"quantityRange": "1-2",
        "percentage": 66
      }
    ]
  },
  "moves": [
    "1:copycat",
    "1:defensecurl",
    "1:growl",
    "1:tackle",
    "12:guardsplit",
    "16:doublekick",
    "21:headbutt",
    "27:takedown",
    "32:guardswap",
    "38:reversal",
    "44:cottonguard",
    "50:doubleedge",
    "56:lastresort",
    "tm:agility",
    "tm:attract",
    "tm:batonpass",
    "tm:bodypress",
    "tm:bodyslam",
    "tm:bounce",
    "tm:electroball",
    "tm:endure",
    "tm:facade",
    "tm:gigaimpact",
    "tm:guardswap",
    "tm:hyperbeam",
    "tm:megakick",
    "tm:payback",
    "tm:protect",
    "tm:rest",
    "tm:retaliate",
    "tm:reversal",
    "tm:round",
    "tm:sleeptalk",
    "tm:snore",
    "tm:substitute",
    "tm:swordsdance",
    "tm:thunderwave",
    "tm:wildcharge",
    "tm:zenheadbutt",
    "tutor:grassyglide"
  ],
  "labels": [
    "gen8"
  ],
  "pokedex": [
    "cobblemon.species.dubwool.desc"
  ],
  "preEvolution": "wooloo",
  "evolutions": [],
  "baseScale": 1.2,
  "hitbox": {
    "width": 1,
    "height": 1.2,
    "fixed": false
  },
  "baseFriendship": 50,
  "evYield": {
    "hp": 0,
    "attack": 0,
    "defence": 2,
    "special_attack": 0,
    "special_defence": 0,
    "speed": 0
  },
  "height": 13,
  "weight": 430,
  "aspects": [],
  "cannotDynamax": false
}