{
    "enabled": true,
    "neededInstalledMods": [],
    "neededUninstalledMods": [],
    "spawns": [
        {
            "id": "electivire-1",
            "pokemon": "electivire",
            "presets": [
                "natural"
            ],
            "type": "pokemon",
            "context": "grounded",
            "bucket": "common",
            "level": "50-54",
            "weight": 0.06,
            "condition": {
                "canSeeSky": true,
                "biomes": [
                    "#cobblemon:is_plains"
                ],
                "isThundering": true
            }
        },
        {
            "id": "electivire-2",
            "pokemon": "electivire",
            "type": "pokemon",
            "context": "grounded",
            "bucket": "uncommon",
            "level": "50-54",
            "weight": 0.1,
            "condition": {
                "canSeeSky": true,
                "biomes": [
                    "#cobblemon:is_plains"
                ],
				"neededNearbyBlocks": [
                    "minecraft:lightning_rod"
                ]
            }
        }
    ]
}