{
  "condition": {
    "neededBaseBlocks": [
      "minecraft:lily_pad",
	  "#minecraft:animals_spawnable_on",
	  "#minecraft:crystal_sound_blocks",
	  "#minecraft:base_stone_nether",
	  "#minecraft:base_stone_overworld",
	  "#minecraft:coal_ores",
	  "#minecraft:copper_ores",
	  "#minecraft:coral_blocks",
	  "#minecraft:diamond_ores",
	  "#minecraft:dirt",
	  "#minecraft:dirt_like",
	  "#minecraft:emerald_ores",
	  "#minecraft:sculk_replaceable",
	  "#minecraft:gold_ores",
	  "#minecraft:grass",
	  "#minecraft:gravel",
	  "#minecraft:ice",
	  "#minecraft:iron_ores",
	  "#minecraft:lapis_ores",
	  "#minecraft:nylium",
	  "#minecraft:redstone_ores",
	  "#minecraft:sand",
	  "#minecraft:snow",
	  "#minecraft:terracotta",
	  "#minecraft:valid_spawn",
	  "#c:adamantite_ores",
	  "#c:aetherium_ores",
	  "#c:aluminum_ores",
	  "#c:amethyst_blocks",
	  "#c:amethyst_ores",
	  "#c:ancient_debris",
	  "#c:antimony_ores",
	  "#c:aquarium_ores",
	  "#c:asterite_ores",
	  "#c:asteroid_asterite_ores",
	  "#c:banglum_ores",
	  "#c:basalt",
	  "#c:bauxite_ores",
	  "#c:bone_blocks",
	  "#c:carmot_ores",
	  "#c:certus_quartz_ores",
	  "#c:cinnabar_ores",
	  "#c:cobalt_ores",
	  "#c:coral_blocks",
	  "#c:dirt",
	  "#c:end_stones",
	  "#c:galaxium_ores",
	  "#c:galena_ores",
	  "#c:gravel",
	  "#c:galena_ores",
	  "#c:kyber_ores",
	  "#c:lead_ores",
	  "#c:lignite_coal_ores",
	  "#c:lunum_ores",
	  "#c:lutetium_ores",
	  "#c:manganese_ores",
	  "#c:meteor_metite_ores",
	  "#c:metite_ores",
	  "#c:midas_gold_ores",
	  "#c:moon_lunum_ores",
	  "#c:mozanite_ores",
	  "#c:mythril_ores",
	  "#c:natural_stones",
	  "#c:netherrack",
	  "#c:nether_mycelium",
	  "#c:nickel_ores",
	  "#c:nikolite_ores",
	  "#c:ores",
	  "#c:orichalcum_ores",
	  "#c:osmium_ores",
	  "#c:palladium_ores",
	  "#c:peridot_ores",
	  "#c:platinum_ores",
	  "#c:prometheum_ores",
	  "#c:pyrite_ores",
	  "#c:quadrillum_ores",
	  "#c:quartz_ores",
	  "#c:raw_antimony_ores",
	  "#c:raw_copper_ores",
	  "#c:raw_gold_ores",
	  "#c:raw_iridium_ores",
	  "#c:raw_iron_ores",
	  "#c:raw_lead_ores",
	  "#c:raw_nickel_ores",
	  "#c:raw_platinum_ores",
	  "#c:raw_silver_ores",
	  "#c:raw_tin_ores",
	  "#c:raw_titanium_ores",
	  "#c:raw_tungsten_ores",
	  "#c:raw_uranium_ores",
	  "#c:red_sandstones",
	  "#c:ruby_ores",
	  "#c:runite_ores",
	  "#c:salt_ores",
	  "#c:sand",
	  "#c:sandstone",
	  "#c:sandstones",
	  "#c:sapphire_ores",
	  "#c:sheldonite_ores",
	  "#c:silver_ores",
	  "#c:sodalite_ores",
	  "#c:sphalerite_ores",
	  "#c:starrite_ores",
	  "#c:stellum_ores",
	  "#c:stone",
	  "#c:stormyx_ores",
	  "#c:sulfur_ores",
	  "#c:tantalite_ores",
	  "#c:terracotta_blocks",
	  "#c:tin_ores",
	  "#c:titanium_ores",
	  "#c:topaz_ores",
	  "#c:truesilver_ores",
	  "#c:tungsten_ores",
	  "#c:unobtainium_ores",
	  "#c:ur_ores",
	  "#c:uranium_ores",
	  "#c:vermiculite_ores",
	  "#c:zinc_ores"
    ]
  }
}
