{
  "implemented": true,
  "name": "Omanyte",
  "nationalPokedexNumber": 138,
  "primaryType": "rock",
  "secondaryType": "water",
  "abilities": [
    "swiftswim",
    "shellarmor",
    "h:weakarmor"
  ],
  "baseStats": {
    "hp": 35,
    "attack": 40,
    "defence": 100,
    "special_attack": 90,
    "special_defence": 55,
    "speed": 35
  },
  "catchRate": 45,
  "maleRatio": 0.875,
  "shoulderMountable": false,
  "baseExperienceYield": 71,
  "experienceGroup": "medium_fast",
  "eggCycles": 30,
  "eggGroups": [
    "water_1",
    "water_3"
  ],
  "behaviour": {
    "moving": {
      "swim": {
        "canSwimInWater": true,
        "canBreatheUnderwater": true
      }
    }
  },
  "drops": {
    "amount": "2",
    "entries": [
      {
        "item": "minecraft:nautilus_shell"
      },
	  {
        "item": "minecraft:bone_meal",
		"percentage": 5
      }
    ]
  },
  "moves": [
    "1:bind",
    "1:withdraw",
    "5:rollout",
    "10:sandattack",
    "15:watergun",
    "20:leer",
    "25:mudshot",
    "30:ancientpower",
    "35:brine",
    "41:protect",
    "45:rockblast",
    "50:surf",
    "55:shellsmash",
    "60:hydropump",
    "egg:aurorabeam",
    "egg:bide",
    "egg:bite",
    "egg:bubblebeam",
    "egg:haze",
    "egg:knockoff",
    "egg:reflecttype",
    "egg:slam",
    "egg:supersonic",
    "egg:tickle",
    "egg:waterpulse",
    "egg:wringout",
    "tm:attract",
    "tm:blizzard",
    "tm:bodyslam",
    "tm:brine",
    "tm:captivate",
    "tm:confide",
    "tm:dive",
    "tm:doubleteam",
    "tm:earthpower",
    "tm:endure",
    "tm:facade",
    "tm:frustration",
    "tm:gyroball",
    "tm:hail",
    "tm:hiddenpower",
    "tm:hydropump",
    "tm:icebeam",
    "tm:icywind",
    "tm:irondefense",
    "tm:muddywater",
    "tm:mudshot",
    "tm:naturalgift",
    "tm:protect",
    "tm:raindance",
    "tm:rest",
    "tm:return",
    "tm:rockblast",
    "tm:rockpolish",
    "tm:rockslide",
    "tm:rocktomb",
    "tm:round",
    "tm:sandstorm",
    "tm:scald",
    "tm:secretpower",
    "tm:sleeptalk",
    "tm:smackdown",
    "tm:snore",
    "tm:spikes",
    "tm:stealthrock",
    "tm:substitute",
    "tm:surf",
    "tm:swagger",
    "tm:thief",
    "tm:toxicspikes",
    "tm:waterfall",
    "tm:whirlpool",
    "tutor:bide",
    "tutor:bite",
    "tutor:blizzard",
    "tutor:constrict",
    "tutor:curse",
    "tutor:doubleedge",
    "tutor:doubleteam",
    "tutor:facade",
    "tutor:frustration",
    "tutor:headbutt",
    "tutor:hiddenpower",
    "tutor:hornattack",
    "tutor:hydropump",
    "tutor:icebeam",
    "tutor:leer",
    "tutor:meteorbeam",
    "tutor:mimic",
    "tutor:protect",
    "tutor:rage",
    "tutor:reflect",
    "tutor:rest",
    "tutor:return",
    "tutor:rockslide",
    "tutor:rocksmash",
    "tutor:rockthrow",
    "tutor:scald",
    "tutor:shellsmash",
    "tutor:spikecannon",
    "tutor:stealthrock",
    "tutor:substitute",
    "tutor:surf",
    "tutor:swagger",
    "tutor:takedown",
    "tutor:toxic",
    "tutor:waterfall",
    "tutor:watergun",
    "tutor:withdraw"
  ],
  "labels": [
    "gen1"
  ],
  "pokedex": [
    "cobblemon.species.omanyte.desc"
  ],
  "evolutions": [
    {
      "id": "omanyte_omastar",
      "variant": "level_up",
      "result": "omastar",
      "consumeHeldItem": false,
      "learnableMoves": [
        "crunch"
      ],
      "requirements": [
        {
          "variant": "level",
          "minLevel": 40
        }
      ]
    }
  ],
  "baseScale": 1.1,
  "hitbox": {
    "width": 0.5,
    "height": 0.5,
    "fixed": false
  },
  "baseFriendship": 50,
  "evYield": {
    "hp": 0,
    "attack": 0,
    "defence": 1,
    "special_attack": 0,
    "special_defence": 0,
    "speed": 0
  },
  "height": 4,
  "weight": 75,
  "aspects": [],
  "cannotDynamax": false
}