{
  "implemented": true,
  "name": "Zubat",
  "nationalPokedexNumber": 41,
  "primaryType": "poison",
  "secondaryType": "flying",
  "abilities": [
    "innerfocus",
    "h:infiltrator"
  ],
  "baseStats": {
    "hp": 40,
    "attack": 45,
    "defence": 35,
    "special_attack": 30,
    "special_defence": 40,
    "speed": 55
  },
  "catchRate": 255,
  "maleRatio": 0.5,
  "shoulderMountable": true,
  "shoulderEffects": [
    "slow_fall"
  ],
  "baseExperienceYield": 49,
  "experienceGroup": "medium_fast",
  "eggCycles": 15,
  "eggGroups": [
    "flying"
  ],
  "behaviour": {
    "moving": {
      "walk": {
        "canWalk": false
      },
      "fly": {
        "canFly": true
      }
    },
    "resting": {
      "canSleep": true,
      "willSleepOnBed": false,
      "depth": "normal",
      "light": "0-4"
    }
  },
  "moves": [
    "1:absorb",
    "1:supersonic",
    "5:astonish",
    "10:meanlook",
    "15:poisonfang",
    "20:quickguard",
    "25:aircutter",
    "30:bite",
    "35:haze",
    "40:venoshock",
    "45:confuseray",
    "50:airslash",
    "55:leechlife",
    "egg:curse",
    "egg:defog",
    "egg:feintattack",
    "egg:gust",
    "egg:hypnosis",
    "egg:pursuit",
    "egg:quickattack",
    "egg:whirlwind",
    "egg:wingattack",
    "tm:acrobatics",
    "tm:aerialace",
    "tm:agility",
    "tm:airslash",
    "tm:assurance",
    "tm:attract",
    "tm:bravebird",
    "tm:captivate",
    "tm:confide",
    "tm:crunch",
    "tm:doubleteam",
    "tm:endure",
    "tm:facade",
    "tm:fly",
    "tm:frustration",
    "tm:gigadrain",
    "tm:heatwave",
    "tm:hiddenpower",
    "tm:leechlife",
    "tm:nastyplot",
    "tm:naturalgift",
    "tm:payback",
    "tm:pluck",
    "tm:protect",
    "tm:raindance",
    "tm:rest",
    "tm:return",
    "tm:round",
    "tm:secretpower",
    "tm:shadowball",
    "tm:sleeptalk",
    "tm:sludgebomb",
    "tm:snore",
    "tm:steelwing",
    "tm:substitute",
    "tm:sunnyday",
    "tm:swagger",
    "tm:swift",
    "tm:taunt",
    "tm:thief",
    "tm:torment",
    "tm:uproar",
    "tm:uturn",
    "tm:venomdrench",
    "tm:venoshock",
    "tm:zenheadbutt",
    "tutor:absorb",
    "tutor:airslash",
    "tutor:bide",
    "tutor:bite",
    "tutor:confuseray",
    "tutor:detect",
    "tutor:doubleedge",
    "tutor:doubleteam",
    "tutor:dualwingbeat",
    "tutor:facade",
    "tutor:feintattack",
    "tutor:fly",
    "tutor:frustration",
    "tutor:haze",
    "tutor:headbutt",
    "tutor:hiddenpower",
    "tutor:leechlife",
    "tutor:megadrain",
    "tutor:mimic",
    "tutor:ominouswind",
    "tutor:protect",
    "tutor:pursuit",
    "tutor:rage",
    "tutor:razorwind",
    "tutor:rest",
    "tutor:return",
    "tutor:roost",
    "tutor:shadowball",
    "tutor:sludgebomb",
    "tutor:snatch",
    "tutor:substitute",
    "tutor:superfang",
    "tutor:supersonic",
    "tutor:swagger",
    "tutor:swift",
    "tutor:tailwind",
    "tutor:takedown",
    "tutor:taunt",
    "tutor:toxic",
    "tutor:twister",
    "tutor:uturn",
    "tutor:wingattack"
  ],
  "labels": [
    "gen1"
  ],
  "pokedex": [
    "cobblemon.species.zubat.desc"
  ],
  "evolutions": [
    {
      "id": "zubat_golbat",
      "variant": "level_up",
      "result": "golbat",
      "consumeHeldItem": false,
      "learnableMoves": [],
      "requirements": [
        {
          "variant": "level",
          "minLevel": 22
        }
      ]
    }
  ],
  "baseScale": 0.8,
  "hitbox": {
    "width": 0.6,
    "height": 1.1,
    "fixed": false
  },
  "baseFriendship": 50,
  "evYield": {
    "hp": 0,
    "attack": 0,
    "defence": 0,
    "special_attack": 0,
    "special_defence": 0,
    "speed": 1
  },
  "height": 8,
  "weight": 75,
  "aspects": [],
  "cannotDynamax": false
}