{
  "name": "Manectric",
  "nationalPokedexNumber": 310,
  "primaryType": "electric",
  "abilities": [
    "static",
    "lightningrod",
    "h:minus"
  ],
  "baseStats": {
    "hp": 70,
    "attack": 75,
    "defence": 60,
    "special_attack": 105,
    "special_defence": 60,
    "speed": 105
  },
  "catchRate": 45,
  "maleRatio": 0.5,
  "shoulderMountable": false,
  "forms": [
    {
      "name": "Mega",
      "primaryType": "electric",
      "abilities": [
        "intimidate"
      ],
      "baseStats": {
        "hp": 70,
        "attack": 75,
        "defence": 80,
        "special_attack": 135,
        "special_defence": 80,
        "speed": 135
      },
      "catchRate": 45,
      "maleRatio": 0.5,
      "baseExperienceYield": 201,
      "baseFriendship": 50,
      "evYield": {
        "hp": 0,
        "attack": 0,
        "defence": 0,
        "special_attack": 0,
        "special_defence": 0,
        "speed": 2
      },
      "experienceGroup": "slow",
      "eggCycles": 20,
      "eggGroups": [
        "field"
      ],
      "moves": [],
      "labels": [
        "gen6",
        "mega"
      ],
      "aspects": [
        "mega"
      ],
      "height": 18,
      "weight": 440,
      "evolutions": [],
      "cannotDynamax": false,
      "battleOnly": true
    }
  ],
  "baseExperienceYield": 166,
  "experienceGroup": "slow",
  "eggCycles": 20,
  "eggGroups": [
    "field"
  ],
  "moves": [
    "1:firefang",
    "1:howl",
    "1:leer",
    "1:tackle",
    "1:thunderwave",
    "12:quickattack",
    "13:spark",
    "16:odorsleuth",
    "16:shockwave",
    "20:bite",
    "24:thunderfang",
    "30:roar",
    "36:discharge",
    "42:charge",
    "48:wildcharge",
    "54:thunder",
    "60:electricterrain",
    "tm:agility",
    "tm:attract",
    "tm:bodyslam",
    "tm:captivate",
    "tm:chargebeam",
    "tm:confide",
    "tm:crunch",
    "tm:doubleteam",
    "tm:eerieimpulse",
    "tm:electricterrain",
    "tm:electroball",
    "tm:endure",
    "tm:facade",
    "tm:firefang",
    "tm:flamethrower",
    "tm:flash",
    "tm:frustration",
    "tm:gigaimpact",
    "tm:hiddenpower",
    "tm:hyperbeam",
    "tm:hypervoice",
    "tm:icefang",
    "tm:irontail",
    "tm:lightscreen",
    "tm:naturalgift",
    "tm:overheat",
    "tm:protect",
    "tm:psychicfangs",
    "tm:raindance",
    "tm:rest",
    "tm:return",
    "tm:round",
    "tm:scaryface",
    "tm:secretpower",
    "tm:sleeptalk",
    "tm:snarl",
    "tm:snore",
    "tm:strength",
    "tm:substitute",
    "tm:swagger",
    "tm:swift",
    "tm:thief",
    "tm:thunder",
    "tm:thunderbolt",
    "tm:thunderfang",
    "tm:thunderwave",
    "tm:toxic",
    "tm:uproar",
    "tm:voltswitch",
    "tm:wildcharge",
    "tutor:doubleedge",
    "tutor:headbutt",
    "tutor:laserfocus",
    "tutor:magnetrise",
    "tutor:mimic",
    "tutor:mudslap",
    "tutor:refresh",
    "tutor:risingvoltage",
    "tutor:signalbeam"
  ],
  "labels": [
    "gen3"
  ],
  "pokedex": [
    "cobblemon.species.manectric.desc"
  ],
  "preEvolution": "electrike",
  "evolutions": [],
  "baseScale": 1,
  "hitbox": {
    "width": 1,
    "height": 1,
    "fixed": false
  },
  "baseFriendship": 50,
  "evYield": {
    "hp": 0,
    "attack": 0,
    "defence": 0,
    "special_attack": 0,
    "special_defence": 0,
    "speed": 2
  },
  "height": 15,
  "weight": 402,
  "aspects": [],
  "cannotDynamax": false
}